…
# total number of unsolved homocides under each city_state
unsolved <- homocide %>%
  filter(disposition == "Closed without arrest" | disposition == "Open/No arrest") %>%
  group_by(city_state) %>%
  summarise(unsolved_homocides = n())

# Merge the two results.
full_join(total, unsolved)
```

    ## Joining, by = "city_state"

    ## # A tibble: 51 × 3
    ##    city_state      total_homocides unsolved_homocides
    ##    <chr>                     <int>              <int>
    ##  1 Albuquerque, NM             378                146
    ##  2 Atlanta, GA                 973                373
    ##  3 Baltimore, MD              2827               1825
    ##  4 Baton Rouge, LA             424                196
    ##  5 Birmingham, AL              800                347
    ##  6 Boston, MA                  614                310
    ##  7 Buffalo, NY                 521                319
    ##  8 Charlotte, NC               687                206
    ##  9 Chicago, IL                5535               4073
    ## 10 Cincinnati, OH              694                309
    ## # … with 41 more rows
…
